{
  "title": "Elites in Representative Democracy",
  "referencing_style": "harvard",
  "id": 4,
  "user_id": 1,
  "due_date": 1531422826761,
  "created_at": 1522422826761,
  "edited_at": 1530422826761,
  "exported_at": 1530722826761,
  "subject": "Economics and Politics",
  "topic": "Democracy",
  "progress": {
    "project": 100,
    "due": 1531422826761,
    "improve": {
      "total": 87,
      "completed": 87
    },
    "words": {
      "target": 2000,
      "current": 2059
    }
  },
  "draft": {
    "id": 4,
    "type": "draft",
    "word_count": 2059
  },
  "bibliography": {
    "id": 5,
    "type": "bibliography",
    "length": 5
  },
  "plan": {
    "id": 4,
    "type": "plan"
  },
  "notes": [
    14,
    15
  ],
  "timeline": [
    {
      "time_stamp": 1546954026761,
      "events": [
        {
          "title": "Project Created",
          "type": "creation"
        },
        {
          "title": "Information Added",
          "type": "edit"
        },
        {
          "title": "Due Date Set",
          "type": "edit"
        }
      ]
    },
    {
      "time_stamp": 1547040426761,
      "events": [
        {
          "title": "Note Created",
          "type": "creation"
        },
        {
          "title": "Draft Started",
          "type": "important"
        },
        {
          "title": "Bibliography Started",
          "type": "important"
        },
        {
          "title": "Reference Added",
          "type": "edit"
        },
        {
          "title": "Reference Added",
          "type": "edit"
        }
      ]
    },
    {
      "time_stamp": 1547299626761,
      "events": [
        {
          "title": "Note Edited",
          "type": "edit"
        },
        {
          "title": "Draft Edited",
          "type": "important"
        },
        {
          "title": "Note Edited",
          "type": "edit"
        },
        {
          "title": "Note Created",
          "type": "creation"
        }
      ]
    },
    {
      "time_stamp": 1547818026761,
      "events": [
        {
          "title": "Draft Edited",
          "type": "important"
        },
        {
          "title": "Note Edited",
          "type": "edit"
        },
        {
          "title": "Note Edited",
          "type": "edit"
        },
        {
          "title": "Reference Added",
          "type": "edit"
        },
        {
          "title": "Reference Added",
          "type": "edit"
        }
      ]
    },
    {
      "time_stamp": 1548163626761,
      "events": [
        {
          "title": "Draft Edited",
          "type": "important"
        },
        {
          "title": "Reference Added",
          "type": "edit"
        },
        {
          "title": "Note Edited",
          "type": "edit"
        },
        {
          "title": "Reference Added",
          "type": "edit"
        },
        {
          "title": "Reference Added",
          "type": "edit"
        }
      ]
    },
    {
      "time_stamp": 1548422826761,
      "events": [
        {
          "title": "Draft Finished",
          "type": "finish"
        },
        {
          "title": "Reference Added",
          "type": "edit"
        },
        {
          "title": "Started Draft Improvements",
          "type": "creation"
        },
        {
          "title": "Finished Draft Improvements",
          "type": "finish"
        },
        {
          "title": "Started Plagiarism Check",
          "type": "creation"
        },
        {
          "title": "Reference Added",
          "type": "edit"
        },
        {
          "title": "Reference Added",
          "type": "edit"
        },
        {
          "title": "Reference Added",
          "type": "edit"
        },
        {
          "title": "Reference Added",
          "type": "edit"
        },
        {
          "title": "Started Plagiarism Check",
          "type": "finish"
        }
      ]
    }
  ]
}