{
  "id": 3,
  "title": null,
  "created_at": 1213143144,
  "edited_at": 123131243241,
  "project_id": 3,
  "project_completed": false,
  "document": {
    "font": "Arial",
    "line_height": "1.5",
    "font_size": "0.9rem",
    "type": "bibliography",
    "referencing_style": "apa",
    "reference_ids": [
     17,18,19,20,21,22
    ]
  }
}