{
  "id": 4,
  "title": "Collected Extra References",
  "created_at": 1213123123,
  "edited_at": 12312321312,
  "project_id": null,
  "project_completed": false,
  "document": {
    "font": "Arial",
    "line_height": "1.5",
    "font_size": "0.9rem",
    "type": "bibliography",
    "referencing_style": "harvard",
    "reference_ids": [
      8,
      1,
      10,
      2,
      4,
      9,
      3,
      11,
      12
    ]
  }
}