{
  "id": 2,
  "title": null,
  "created_at": 1231312312312,
  "edited_at":  1454314312312,
  "project_id": 2,
  "project_completed": false,
  "document": {
    "font": "Arial",
    "line_height": "1.5",
    "font_size": "0.9rem",
    "type": "bibliography",
    "referencing_style": "harvard",
    "reference_ids": [
      8,
      9,
      10,
      11,
      12,
      13,
      14,
      15,
      16
    ]
  }
}