{
    "id": 1,
    "email": "justin@ex.ac.uk",
    "password": "password",
    "projects": [1,2,3,4],
    "notifications_id": 1, 
    "documents": {
        "drafts": [1,2,3,4 ],
        "bibliographies": [1,2,3,4,5],
        "notes": [1,2,3,4,5,6,7,8,9,10,11,12,13,14,15]
    },
    "profile": {
        "name": {
            "first": "Justin",
            "last": "Milos Moryto"
        },
        "photo": "https://scontent-lhr3-1.cdninstagram.com/vp/31c6d26ca3953d0c27a25486afc942fc/5C8F09EA/t51.2885-19/s150x150/15624755_706174719550682_7904958583270277120_a.jpg?_nc_ht=scontent-lhr3-1.cdninstagram.com",
        "year": 1,
        "course": "Economics and Politics"
    },
    "university": {
        "id": 1,
		"name": "University of Exeter",
		"shield": "https://www.heraldry-wiki.com/heraldrywiki/images/e/eb/Uni-exeter.jpg"
    },
    "stats": {
        "words_written": 3500,
        "projects": 5,
        "time_spent": 420000,
        "resources_added": 36,
        "references_found": 20,
        "feedback_given": 435
    },
    "grades": {
        "required": {
            "course_length": 3,
            "current": 1,
            "year_weights": [
                0,
                40,
                60
            ],
            "year_credits": [
                120,
                120,
                120
            ]
        },
        "results": [
            {
                "year": 1,
                "weight": 0,
                "credits": 120,
                "result": null,
                "status": "current",
                "modules": [
                    {
                        "title": "Economics 101",
                        "credits": 30,
                        "result": 68.5,
                        "assignments": [
                            {
                                "title": "Role of Financial Systems in a Modern Economy",
                                "currikula_project": true,
                                "project_id": "#1121243213",
                                "weight": 50,
                                "grade": 73
                            },
                            {
                                "title": "End of Term Exam",
                                "currikula_project": false,
                                "project_id": null,
                                "weight": 50,
                                "grade": 68
                            }
                        ]
                    },
                    {
                        "title": "Economics 102",
                        "credits": 30,
                        "result": 69.5,
                        "assignments": [
                            {
                                "title": "Analysis of Gordon Brown’s Leadership",
                                "currikula_project": true,
                                "project_id": "#q1123d2wd23d23",
                                "weight": 40,
                                "grade": 73
                            },
                            {
                                "title": "Term Exam",
                                "currikula_project": false,
                                "project_id": null,
                                "weight": 40,
                                "grade": 68
                            },
                            {
                                "title": "Lecture  Test",
                                "currikula_project": false,
                                "project_id": null,
                                "weight": 20,
                                "grade": 63
                            }
                        ]
                    },
                    {
                        "title": "History of the British Government",
                        "credits": 30,
                        "result": null,
                        "assignments": [
                            {
                                "title": "The Differences Between American And British Politics Politics Essay",
                                "currikula_project": true,
                                "project_id": "#q1123d2wd23d23",
                                "weight": 100,
                                "grade": null
                            }
                        ]
                    },
                    {
                        "title": "Communism In a Modern World",
                        "credits": 30,
                        "result": null,
                        "assignments": [
                            {
                                "title": "End of year Exam",
                                "currikula_project": false,
                                "project_id": null,
                                "weight": 100,
                                "grade": null
                            }
                        ]
                    }
                ]
            },
            {
                "year": 2, 
                "weight": 40, 
                "credits": 120,
                "result": null,
                "status": "not_started",
                "modules": []
            },
            {
                "year": 3, 
                "weight": 60, 
                "credits": 120,
                "result": null,
                "status": "not_started",
                "modules": []
            }
        ]
    },
    "referrals": {
        "code": "jmm-21455",
        "points": 110,
        "referred_users": [
            {
                "id": 10,
                "sign_up": true,
                "project_start": false,
                "projects_completed": 0,
                "points_earned": 10
            },
            {
                "id": 22,
                "sign_up": true,
                "project_start": true,
                "projects_completed": 6,
                "points_earned": 35
            },
            {
                "id": 31,
                "sign_up": true,
                "project_start": true,
                "projects_completed": 2,
                "points_earned": 20
            },
            {
                "id": 45,
                "sign_up": true,
                "project_start": false,
                "projects_completed": 0,
                "points_earned": 10
            },
            {
                "id": 67,
                "sign_up": true,
                "project_start": true,
                "projects_completed": 3,
                "points_earned": 35
            }
        ],
        "rewards_claimed": {
            "golden_profile": true,
            "month_free": true,
            "shirt": true,
            "note_book": false,
            "free_drinks": false
        }
    }, 
    "settings": {
        "defaults": {
            "referencing_style": null,
            "note_style": null,
            "font_style": null,
            "line_style": null,
            "text_style": null
        },
        "notifications": {
            "receive_via": {
                "email": null,
                "currikula": true
            },
            "choices": {
                "project_deadlines": null,
                "project_updates": null,
                "edits": null,
                "weekly_summary": null
            }
        },
        "marketing": {
            "consent": true,
            "choices": {
                "news": null,
                "blogs": null,
                "currikula_updates": null,
                "rewards": null,
                "education_news": null
            }
        },
        "billing": {
            "information": {
                "stripe": "access stripe api"
            },
            "plan": {
                "plan_id": "monthly"
            },
            "refferal_savings": {
                "time_earned": 43200000
            }
        },
        "status": {
            "delete": {
                "deleted": false,
                "deletion_time": "time_of_deletion"
            }
        }
    }
}

