<?xml version="1.0" encoding="UTF-8"?>
<svg width="344px" height="216px" viewBox="0 0 344 216" version="1.1" xmlns="http://www.w3.org/2000/svg" xmlns:xlink="http://www.w3.org/1999/xlink">
    <!-- Generator: Sketch 52.5 (67469) - http://www.bohemiancoding.com/sketch -->
    <title>freeform</title>
    <desc>Created with Sketch.</desc>
    <g id="icons" stroke="none" stroke-width="1" fill="none" fill-rule="evenodd">
        <g id="freeform" transform="translate(-114.000000, -183.000000)" fill="#000000">
            <g transform="translate(114.000000, 183.000000)">
                <rect id="Rectangle" x="0" y="0" width="344" height="52" rx="8"></rect>
                <circle id="Oval-Copy" cx="26" cy="108" r="26"></circle>
                <rect id="Rectangle-Copy" x="84" y="82" width="260" height="52" rx="8"></rect>
                <rect id="Rectangle-Copy-2" x="0" y="164" width="260" height="52" rx="8"></rect>
            </g>
        </g>
    </g>
</svg>