<?xml version="1.0" encoding="UTF-8"?>
<svg width="360px" height="470px" viewBox="0 0 360 470" version="1.1" xmlns="http://www.w3.org/2000/svg" xmlns:xlink="http://www.w3.org/1999/xlink">
    <!-- Generator: Sketch 52.5 (67469) - http://www.bohemiancoding.com/sketch -->
    <title>custom-notebook</title>
    <desc>Created with Sketch.</desc>
    <g id="icons" stroke="none" stroke-width="1" fill="none" fill-rule="evenodd">
        <g id="custom-notebook" transform="translate(-106.000000, -43.000000)" fill="#FFFFFF">
            <g transform="translate(106.000000, 43.000000)">
                <path d="M340.737201,441 L340.737201,29.5953608 C340.737201,25.1770828 337.155479,21.5953608 332.737201,21.5953608 L28,21.5953608 L28,8 C28,3.581722 31.581722,8.11624501e-16 36,0 L352,0 C356.418278,-8.11624501e-16 360,3.581722 360,8 L360,433 C360,437.418278 356.418278,441 352,441 L340.737201,441 Z" id="Combined-Shape"></path>
                <path d="M8,29 L324,29 C328.418278,29 332,32.581722 332,37 L332,462 C332,466.418278 328.418278,470 324,470 L8,470 C3.581722,470 5.41083001e-16,466.418278 0,462 L0,37 C-5.41083001e-16,32.581722 3.581722,29 8,29 Z M266.984907,441.35486 C266.984907,441.35486 272.625256,448.035072 280.380736,448.386663 C288.136215,448.738253 293.776564,443.815991 293.776564,443.815991 L283.905954,431.510337 L266.984907,441.35486 Z M283.20091,418.853093 L266.984907,438.893729 L285.316041,426.939665 L296.244217,441.00327 L298.006826,438.542139 L283.20091,418.853093 Z M274.387865,418.853093 L266.984907,436.081009 L277.560561,422.017404 L274.387865,418.853093 Z M268.394994,418.853093 L266.279863,433.268288 L271.215169,420.962633 L268.394994,418.853093 Z" id="Combined-Shape"></path>
                <rect id="Rectangle" x="28" y="61" width="290" height="357"></rect>
                <rect id="Rectangle-Copy-3" x="32" y="97" width="234" height="357"></rect>
            </g>
        </g>
    </g>
</svg>