<?xml version="1.0" encoding="UTF-8"?>
<svg width="392px" height="478px" viewBox="0 0 392 478" version="1.1" xmlns="http://www.w3.org/2000/svg" xmlns:xlink="http://www.w3.org/1999/xlink">
    <!-- Generator: Sketch 52.5 (67469) - http://www.bohemiancoding.com/sketch -->
    <title>Group</title>
    <desc>Created with Sketch.</desc>
    <g id="icons" stroke="none" stroke-width="1" fill="none" fill-rule="evenodd">
        <g id="Artboard" transform="translate(-90.000000, -62.000000)" fill="#FFFFFF">
            <g id="Group" transform="translate(90.000000, 62.000000)">
                <rect id="Rectangle" x="116" y="106" width="160" height="21" rx="8"></rect>
                <path d="M118.601177,137 L271.002795,137 C371.559661,271.928417 409.137959,365.663183 383.73769,418.2043 C345.637285,497.015974 45.8614922,497.015974 7.76108773,418.2043 C-17.6391819,365.663183 19.3075146,271.928417 118.601177,137 Z M161.4,296.6 L149.8,296.6 L149.8,305.6 L166.8,305.6 C168.000006,308.26668 169.133328,311.26665 170.2,314.6 C171.266672,317.93335 171.8,321.133318 171.8,324.2 C171.8,328.066686 171.200006,331.733316 170,335.2 C168.799994,338.666684 167.166677,341.933318 165.1,345 C163.033323,348.066682 160.66668,350.866654 158,353.4 C155.33332,355.933346 152.600014,358.133324 149.8,360 L159.2,373 C162.266682,370.99999 165.399984,369.366673 168.6,368.1 C171.800016,366.833327 175.333314,366.2 179.2,366.2 C183.066686,366.2 186.699983,366.633329 190.1,367.5 C193.500017,368.366671 196.86665,369.333328 200.2,370.4 C203.666684,371.333338 206.999984,372.199996 210.2,373 C213.400016,373.800004 216.66665,374.2 220,374.2 C225.200026,374.2 230.366641,373.566673 235.5,372.3 C240.633359,371.033327 245.19998,368.666684 249.2,365.2 L240.6,352 C238.199988,353.866676 235.433349,355.566659 232.3,357.1 C229.166651,358.633341 226.000016,359.4 222.8,359.4 C219.733318,359.4 216.833347,359.000004 214.1,358.2 C211.366653,357.399996 208.66668,356.600004 206,355.8 C203.33332,355.13333 200.466682,354.46667 197.4,353.8 C194.333318,353.13333 190.866686,352.8 187,352.8 C182.99998,352.8 179.366683,353.399994 176.1,354.6 C172.833317,355.800006 169.466684,357.133326 166,358.6 L165.6,358.2 C168.533348,355.799988 171.399986,353.333346 174.2,350.8 C177.000014,348.266654 179.466656,345.500015 181.6,342.5 C183.733344,339.499985 185.46666,336.233351 186.8,332.7 C188.13334,329.166649 188.8,325.133356 188.8,320.6 C188.8,317.799986 188.400004,315.133346 187.6,312.6 C186.799996,310.066654 185.866672,307.733344 184.8,305.6 L212.2,305.6 L212.2,296.6 L180.4,296.6 C179.199994,294.199988 178.000006,291.866678 176.8,289.6 C175.599994,287.333322 174.500005,285.000012 173.5,282.6 C172.499995,280.199988 171.66667,277.633347 171,274.9 C170.33333,272.166653 170,269.200016 170,266 C170,262.266648 170.733326,258.800016 172.2,255.6 C173.666674,252.399984 175.699987,249.633345 178.3,247.3 C180.900013,244.966655 183.933316,243.13334 187.4,241.8 C190.866684,240.46666 194.59998,239.8 198.6,239.8 C208.200048,239.8 215.399976,242.966635 220.2,249.3 C225.000024,255.633365 227.533332,264.666608 227.8,276.4 L244.8,276.4 C245.066668,259.199914 240.966709,246.300043 232.5,237.7 C224.033291,229.099957 212.400074,224.8 197.6,224.8 C191.466636,224.8 185.666694,225.733324 180.2,227.6 C174.733306,229.466676 169.900021,232.133316 165.7,235.6 C161.499979,239.066684 158.166679,243.299975 155.7,248.3 C153.233321,253.300025 152,258.999968 152,265.4 C152,271.800032 152.899991,277.466642 154.7,282.4 C156.500009,287.333358 158.73332,292.066644 161.4,296.6 Z" id="Combined-Shape"></path>
                <path d="M196.602437,34.0759124 C256.392165,3.05533376e-13 294.728087,-8.51897809 311.610202,8.51897809 C328.492317,25.5569343 315.645609,52.7177711 273.070078,90.0014887 L120.217774,90.0014887 C74.2873082,52.7177711 61.8655327,25.5569343 82.9524476,8.51897809 C104.039362,-8.51897809 141.922692,7.10542736e-14 196.602437,34.0759124 Z" id="Path-2"></path>
            </g>
        </g>
    </g>
</svg>