{
    "id": 10,
    "title": "Lecture Notes 2 - History of Politics",
    "created_at": 1546222826761,
    "edited_at":  1548810356761,
    "user_id": 1,
    "project_id": 3,
    "project_completed": false,
    "document": {
        "type": "note",
        "font": "Times New Roman",
        "line_height": "1.5",
        "font_size": "1rem",
        "note_style": "bullets",
        "tags": [
            "Politics",
            "Aristotle"
        ],
        "value": {
            "object": "value",
            "document": {
                "object": "document",
                "data": {},
                "nodes": [
                    {
                        "object": "block",
                        "type": "title",
                        "data": {},
                        "nodes": [
                            {
                                "object": "text",
                                "leaves": [
                                    {
                                        "object": "leaf",
                                        "text": "Lecture 2 Notes - History of Politics",
                                        "marks": []
                                    }
                                ]
                            }
                        ]
                    },
                    {
                        "object": "block",
                        "type": "bulleted-list",
                        "data": {},
                        "nodes": [
                            {
                                "object": "block",
                                "type": "list-item",
                                "data": {},
                                "nodes": [
                                    {
                                        "object": "text",
                                        "leaves": [
                                            {
                                                "object": "leaf",
                                                "text": "Aristotle defines the polis, or city, as a koinonia, or political association, and he asserts that all such associations, like all deliberate human acts, are formed with the aim of achieving some good. He adds that political association is the most sovereign form of association since it incorporates all other forms of association and aims at the highest good.",
                                                "marks": []
                                            }
                                        ]
                                    }
                                ]
                            },
                            {
                                "object": "block",
                                "type": "list-item",
                                "data": {},
                                "nodes": [
                                    {
                                        "object": "text",
                                        "leaves": [
                                            {
                                                "object": "leaf",
                                                "text": "Aristotle identifies the three kinds of relationships that make up the household: master-slave; husband-wife; and parent-child. He also identifies a fourth element of the household, which he calls the \"art of acquisition.\"",
                                                "marks": []
                                            }
                                        ]
                                    }
                                ]
                            },
                            {
                                "object": "block",
                                "type": "list-item",
                                "data": {},
                                "nodes": [
                                    {
                                        "object": "text",
                                        "leaves": [
                                            {
                                                "object": "leaf",
                                                "text": "Aristotle likens the relationship between master and slave to that between soul and body: the master possesses rational, commanding powers, while the slave, lacking these, is fit only to carry out menial duties. He also likens the relationship between master and slave to that between a monarch and his people and that between a statesman and free citizens.",
                                                "marks": []
                                            }
                                        ]
                                    }
                                ]
                            },
                            {
                                "object": "block",
                                "type": "list-item",
                                "data": {},
                                "nodes": [
                                    {
                                        "object": "text",
                                        "leaves": [
                                            {
                                                "object": "leaf",
                                                "text": "Aristotle likens the relationship between master and slave to that between soul and body: the master possesses rational, commanding powers, while the slave, lacking these, is fit only to carry out menial duties. He also likens the relationship between master and slave to that between a monarch and his people and that between a statesman and free citizens.",
                                                "marks": []
                                            }
                                        ]
                                    }
                                ]
                            },
                            {
                                "object": "block",
                                "type": "list-item",
                                "data": {},
                                "nodes": [
                                    {
                                        "object": "text",
                                        "leaves": [
                                            {
                                                "object": "leaf",
                                                "text": "Much of Aristotle's political philosophy is based on the idea of teleology—that everything in nature exists for a specific purpose. His Nicomachean Ethics##, which in many ways parallels the Politics, argues that the end goal of human existence is happiness and that this happiness involves the human faculty of reason. The Politics is largely an attempt to determine what kind of political association is best suited for securing happiness for its citizens.",
                                                "marks": []
                                            }
                                        ]
                                    }
                                ]
                            },
                            {
                                "object": "block",
                                "type": "list-item",
                                "data": {},
                                "nodes": [
                                    {
                                        "object": "text",
                                        "leaves": [
                                            {
                                                "object": "leaf",
                                                "text": "This is a good point!",
                                                "marks": [
                                                    {
                                                        "object": "mark",
                                                        "type": "italic",
                                                        "data": {}
                                                    }
                                                ]
                                            }
                                        ]
                                    }
                                ]
                            }
                        ]
                    },
                    {
                        "object": "block",
                        "type": "paragraph",
                        "data": {},
                        "nodes": [
                            {
                                "object": "text",
                                "leaves": [
                                    {
                                        "object": "leaf",
                                        "text": "",
                                        "marks": []
                                    }
                                ]
                            }
                        ]
                    },
                    {
                        "object": "block",
                        "type": "paragraph",
                        "data": {},
                        "nodes": [
                            {
                                "object": "text",
                                "leaves": [
                                    {
                                        "object": "leaf",
                                        "text": "",
                                        "marks": []
                                    }
                                ]
                            }
                        ]
                    }
                ]
            }
        }
    }
}