{
  "id": 7,
  "title": "Lecture Notes 7",
  "created_at": 1546722826761,
  "edited_at": 1549010356761,
  "project_id": 2,
  "project_completed": false,
  "user_id": 1,
  "document": {
    "type": "note",
    "font": "Times New Roman",
    "line_height": "1.5",
    "font_size": "1rem",
    "note_style": "bullets",
    "tags": [
      "Politics",
      "Spanish",
      "Civil",
      "War",
      "Stalin"
    ],
    "value": {
      "object": "value",
      "document": {
        "object": "document",
        "data": {},
        "nodes": [
          {
            "object": "block",
            "type": "title",
            "data": {},
            "nodes": [
              {
                "object": "text",
                "leaves": [
                  {
                    "object": "leaf",
                    "text": "Lecture notes 7",
                    "marks": []
                  }
                ]
              }
            ]
          },
          {
            "object": "block",
            "type": "paragraph",
            "data": {},
            "nodes": [
              {
                "object": "text",
                "leaves": [
                  {
                    "object": "leaf",
                    "text": "",
                    "marks": []
                  }
                ]
              }
            ]
          },
          {
            "object": "block",
            "type": "bulleted-list",
            "data": {},
            "nodes": [
              {
                "object": "block",
                "type": "list-item",
                "data": {},
                "nodes": [
                  {
                    "object": "text",
                    "leaves": [
                      {
                        "object": "leaf",
                        "text": "The Spanish Civil War is sometimes referred to as a dress rehearsal for World War II. In military terms this was far from true. Both sides were starved for material, fighting with outdated weapons on flexible fronts with limited communication and little air support. Civilians were bombed, but the destruction in Spain did not compare to the assault unleashed upon all of Europe shortly after",
                        "marks": []
                      }
                    ]
                  }
                ]
              },
              {
                "object": "block",
                "type": "list-item",
                "data": {},
                "nodes": [
                  {
                    "object": "text",
                    "leaves": [
                      {
                        "object": "leaf",
                        "text": "The Bloc National was a coalition of rightist groups in France that came together in fear of socialist opposition to run the French government during the early years of the inter-war period. The Bloc National maintained conservatism in France to a high degree, and demanded that Germany pay its reparations in full.",
                        "marks": []
                      }
                    ]
                  }
                ]
              },
              {
                "object": "block",
                "type": "list-item",
                "data": {},
                "nodes": [
                  {
                    "object": "text",
                    "leaves": [
                      {
                        "object": "leaf",
                        "text": "During the 1930s, Joseph Stalin consolidated power in the Soviet Union by eliminating his opponents. In 1933, he created the Central Purge Commission, which publicly investigated and tried members of the Communist Party for treason. In 1933 and 1934, 1,140,000 members were expelled from the party. Between 1933 and 1938, thousands were arrested and expelled, or shot.Stalin's agricultural program, collectivization, forced farmers to pool their lands into government-run farms. When the upper peasant class, the kulaks, protested this program, some three million of them were killed during a reign of terror in 1929 to 1930.",
                        "marks": []
                      }
                    ]
                  }
                ]
              }
            ]
          },
          {
            "object": "block",
            "type": "paragraph",
            "data": {},
            "nodes": [
              {
                "object": "text",
                "leaves": [
                  {
                    "object": "leaf",
                    "text": "",
                    "marks": []
                  }
                ]
              }
            ]
          }
        ]
      }
    }
  }
}