{
  "id": 9,
  "title": "Lecture Notes 9",
  "created_at": 1545222826761,
  "edited_at": 1548910356761,
  "project_id": 2,
  "project_completed": false,
  "user_id": 1,
  "document": {
    "type": "note",
    "font": "Times New Roman",
    "line_height": "1.5",
    "font_size": "1rem",
    "note_style": "bullets",
    "tags": [
      "Politics",
      "Roman",
      "History",
      "Constantine"
    ],
    "value": {
      "object": "value",
      "document": {
        "object": "document",
        "data": {},
        "nodes": [
          {
            "object": "block",
            "type": "title",
            "data": {},
            "nodes": [
              {
                "object": "text",
                "leaves": [
                  {
                    "object": "leaf",
                    "text": "Lecture notes 9",
                    "marks": []
                  }
                ]
              }
            ]
          },
          {
            "object": "block",
            "type": "bulleted-list",
            "data": {},
            "nodes": [
              {
                "object": "block",
                "type": "list-item",
                "data": {},
                "nodes": [
                  {
                    "object": "text",
                    "leaves": [
                      {
                        "object": "leaf",
                        "text": "Furthermore, the two leaders ushered in a society that was no longer one of rights and legal recourse, but of regimentation. Rome witnessed a real militarization of society in terms of manpower, priorities, and challenges, though Diocletian and his successor did try to keep civilian provincial administration separate from military matters, to both rationalize government and prevent generals from accumulating a threatening amount of power. That Diocletian would militarize the state is natural, given his military origin and thereby conditioned reading of the Empire's challenges. His autocracy too, and methods for implementing policies, are characteristic of his upbringing. The rigidity of his measures, such as binding peasants to the soil, in conjunction with processes already under way, such as latifundia, perhaps amplified an already emerging societal stratification; many historians have seen these measures as a creeping enserfment of peasants, and an antecedent to feudal relations. Also, such calcifying social policies suggest that the idealized 'Rome' may have begun to matter to less and less people. Of course, that both leaders increased the German element in the Army would have to mean that Rome and its traditions would be understood imperfectly by its protectors.",
                        "marks": []
                      }
                    ]
                  }
                ]
              },
              {
                "object": "block",
                "type": "list-item",
                "data": {},
                "nodes": [
                  {
                    "object": "text",
                    "leaves": [
                      {
                        "object": "leaf",
                        "text": "Constantine's erection of a new capital was also be highly important. A Christian city, Constantinople came to inform the evolving ethos of Byzantium as a Greek civilization imbued with Christian identity, as well as serving as the hub of the continuing Roman political-legal tradition in the East.",
                        "marks": []
                      }
                    ]
                  }
                ]
              },
              {
                "object": "block",
                "type": "list-item",
                "data": {},
                "nodes": [
                  {
                    "object": "text",
                    "leaves": [
                      {
                        "object": "leaf",
                        "text": "What is the overall significance of the 285-337 Roman restructuring? Several historians have idealized the Roman system of legality, rights, small peasant proprietorship, and industrious, civic-minded urban middle-class bourgeoisie topped by a senatorial class as epitomizing a self consciously Roman order based on Antiquity's balance. Such writers judged Diocletian and Constantine very harshly. The new system was indeed more rigid, and perhaps brittle, depending too much on a single leader to manage and monitor an expanded bureaucracy, military, police, informers, etc. Perhaps along with the structural change there was also something like a metamorphosis, or diminishing, of the Roman ideals in the minds of its citizens. And definitely, there was an increasing Germanization of the army, just as the state became for the first time an interested party to one's religious views.",
                        "marks": []
                      }
                    ]
                  }
                ]
              },
              {
                "object": "block",
                "type": "list-item",
                "data": {},
                "nodes": [
                  {
                    "object": "text",
                    "leaves": [
                      {
                        "object": "leaf",
                        "text": "In short, by the 350s, it was not at all obvious that Rome was headed for terminal difficulties. The tensions between old and new—imposing governments vs. societal traditions, Pagans vs. Christians, government's fiscal demands vs. economic capacity, and Germanization vs. Latin Roman culture—all this may have suggested to many a vibrant mix ensuring a continuing of success.",
                        "marks": []
                      }
                    ]
                  }
                ]
              }
            ]
          },
          {
            "object": "block",
            "type": "paragraph",
            "data": {},
            "nodes": [
              {
                "object": "text",
                "leaves": [
                  {
                    "object": "leaf",
                    "text": "",
                    "marks": []
                  }
                ]
              }
            ]
          },
          {
            "object": "block",
            "type": "paragraph",
            "data": {},
            "nodes": [
              {
                "object": "text",
                "leaves": [
                  {
                    "object": "leaf",
                    "text": "",
                    "marks": []
                  }
                ]
              }
            ]
          }
        ]
      }
    }
  }
}