{
  "id": 6,
  "title": "Lecture Notes 6",
  "created_at": 1545722826761,
  "edited_at": 1548010356761,
  "project_id": 2,
  "project_completed": false,
  "user_id": 1,
  "document": {
    "type": "note",
    "font": "Times New Roman",
    "line_height": "1.5",
    "font_size": "1rem",
    "note_style": "bullets",
    "tags": [
      "Politics",
      "British",
      "Depression",
      "Churchill",
      "Inter-Wars"
    ],
    "value": {
      "object": "value",
      "document": {
        "object": "document",
        "data": {},
        "nodes": [
          {
            "object": "block",
            "type": "title",
            "data": {},
            "nodes": [
              {
                "object": "text",
                "leaves": [
                  {
                    "object": "leaf",
                    "text": "Lecture notes 6",
                    "marks": []
                  }
                ]
              }
            ]
          },
          {
            "object": "block",
            "type": "bulleted-list",
            "data": {},
            "nodes": [
              {
                "object": "block",
                "type": "list-item",
                "data": {},
                "nodes": [
                  {
                    "object": "text",
                    "leaves": [
                      {
                        "object": "leaf",
                        "text": "The British government had a great deal of difficulty in adjusting to post-war politics. David Lloyd George, the talentedd Liberal prime minister, was permitted to retain his office by the Conservative majority. At first he continued to run the government as he had during the war, using only his closest advisors to discuss and execute policy decisions. He often worked behind closed doors. Though he had returned from the Paris Peace Conference to general approval, things gradually began to look less rosy. Demobilization caused much difficulty in England. Overseen by the Ministry of Reconstruction, the British government called back from Europe those men deemed most necessary at home; these men were often those who had been most recently sent over the channel. Long-term military personnel grew angry, and, after a number of demonstrations, the policy of 'first in, first out' was set to appease the military.",
                        "marks": []
                      }
                    ]
                  }
                ]
              },
              {
                "object": "block",
                "type": "list-item",
                "data": {},
                "nodes": [
                  {
                    "object": "text",
                    "leaves": [
                      {
                        "object": "leaf",
                        "text": "The onset of the depression in the early 1930s tore the British Parliament apart, as disagreement over recovery measures divided the nation. Labour advocated extremely leftist policies and unwise spending, while the Liberal and Conservative Parties were divided within themselves over just what to do. The election of 1931 was a marked success for the Conservatives, who emerged with a vast majority in Parliament. Despite the Party's protectionist efforts, the depression grew steadily worse. Unemployment benefits were cut in 1931, and adjusted again in 1934. The remainder of the peacetime years was spent dabbling in different potential solutions to the nation's economic problems.",
                        "marks": []
                      }
                    ]
                  }
                ]
              },
              {
                "object": "block",
                "type": "list-item",
                "data": {},
                "nodes": [
                  {
                    "object": "text",
                    "leaves": [
                      {
                        "object": "leaf",
                        "text": "Focusing on its own problems, Britain had attempted to stay relatively removed from European power politics during the inter-war years, a project which enjoyed fair success until Nazi Germany began to rear it's ugly head. Chamberlain, who proved throughout his time in office that international relations were not his forte, agreed to sign the Munich Pact in 1938, granting Hitler the Czech Sudetenland in an attempt to appease the ambitious dictator. The move was a failure, and Hitler soon demonstrated his desire for total European domination, to which the British responded with a declaration of war. Though Chamberlain's policies in office were questionable, he did prove that he had learned one thing from the interwar years. He accepted his rival, Winston Churchill, as his successor, preparing his party for the transition, thereby avoiding the internecine divisions that had doomed previous transitions of power and caused drastic political realignments.",
                        "marks": []
                      }
                    ]
                  }
                ]
              }
            ]
          },
          {
            "object": "block",
            "type": "paragraph",
            "data": {},
            "nodes": [
              {
                "object": "text",
                "leaves": [
                  {
                    "object": "leaf",
                    "text": "",
                    "marks": []
                  }
                ]
              }
            ]
          }
        ]
      }
    }
  }
}