{
    "id": 18,
    "created_at": 123123123121,
    "edited_at": 1231312312312,
    "project_ids": [3],
    "bibliography_ids": [3],
    "user_ids": [1],
    "author": [
        {
            "first": "A, P",
            "middle": null,
            "last": "Heywood",
            "initials": "A. P. H."
        }
    ],
    "editors": [
        {
            "first": null,
            "middle": null,
            "last": null,
            "initials": null
        }
    ],
    "type": "book",
    "title": "Politic Second Edition",
    "publication_date": {
        "year": 2002,
        "month": null,
        "day": null
    },
    "edited_year": null,
    "edition": null,
    "publisher": "Palgrave",
    "city": "London",
    "version": null,
    "number": null,
    "volume": null,
    "container_title": null,
    "works_title": null,
    "website_title": null,
    "url": null,
    "doi": null,
    "date_accessed": {
        "year": null,
        "month": null,
        "day": null
    },
    "journal_title": null,
    "pages": [],
    "issue_number": null,
    "medium_type": null,
    "available_at": null,
    "collection_title": null,
    "first_edition_date": null
}