{
    "id": 17,
    "created_at": 123123123121,
    "edited_at": 1231312312312,
    "project_ids": [3],
    "bibliography_ids": [3],
    "user_ids": [1],
    "author": [
        {
            "first": "D",
            "middle": null,
            "last": "Reynolds",
            "initials": "D, R."
        }
    ],
    "editors": [
        {
            "first": null,
            "middle": null,
            "last": null,
            "initials": null
        }
    ],
    "type": "journal",
    "title": "International Affairs",
    "publication_date": {
        "year": 1985,
        "month": null,
        "day": null
    },
    "edited_year": null,
    "edition": null,
    "publisher": null,
    "city": null,
    "version": null,
    "number": 62,
    "volume": 1,
    "container_title": "Royal Institute of International Affairs",
    "works_title": null,
    "website_title": null,
    "url": null,
    "doi": null,
    "date_accessed": {
        "year": null,
        "month": null,
        "day": null
    },
    "journal_title": null,
    "pages": ["1-20"],
    "issue_number": null,
    "medium_type": null,
    "available_at": null,
    "collection_title": null,
    "first_edition_date": null
}