{
    "id": 21,
    "created_at": 123123123121,
    "edited_at": 1231312312312,
    "project_ids": [3],
    "bibliography_ids": [3],
    "user_ids": [1],
    "author": [
        {
            "first": "W.J.",
            "middle": null,
            "last": "Ceaser",
            "initials": "W.J.C."
        }
    ],
    "editors": [
        {
            "first": null,
            "middle": null,
            "last": null,
            "initials": null
        }
    ],
    "type": "journal",
    "title": "Political Parties",
    "publication_date": {
        "year": 1990,
        "month": null,
        "day": null
    },
    "edited_year": null,
    "edition": null,
    "publisher": "MacMillan Education LTD",
    "city": "London",
    "version": null,
    "number": null,
    "volume": null,
    "container_title": "King, A the New American Political System",
    "works_title": null,
    "website_title": null,
    "url": null,
    "doi": null,
    "date_accessed": {
        "year": null,
        "month": null,
        "day": null
    },
    "journal_title": null,
    "pages": ["87-135"],
    "issue_number": null,
    "medium_type": null,
    "available_at": null,
    "collection_title": null,
    "first_edition_date": null
}