{
    "id": 15,
    "project_ids": [2],
    "bibliography_ids": [2],
    "user_ids": [1],
    "created_at": 123123123121,
    "edited_at": 1231312312312,
    "author": [
        {
            "first": "Peter",
            "middle": null,
            "last": "Riddell",
            "initials": null
        }
    ],
    "editors": [
        {
            "first": null,
            "middle": null,
            "last": null,
            "initials": null
        }
    ],
    "type": "book",
    "title": "The Thatcher Era and its Legacy",
    "publication_date": {
        "year": "1991",
        "month": null,
        "day": null
    },
    "edited_year": null,
    "edition": null,
    "publisher": "Blackwell",
    "city": "Oxford",
    "version": null,
    "number": null,
    "volume": null,
    "container_title": null,
    "works_title": null,
    "website_title": null,
    "url": null,
    "doi": null,
    "date_accessed": {
        "year": null,
        "month": null,
        "day": null
    },
    "journal_title": null,
    "pages": null,
    "issue_number": null,
    "medium_type": "book",
    "available_at": null,
    "collection_title": null,
    "first_edition_date": null
}