{
    "id": 3,
    "created_at": 123123123121,
    "edited_at": 1231312312312,
    "project_ids": [1],
    "bibliography_ids": [1, 4],
    "user_ids": [1],
    "author": [
        {
            "first": "R",
            "middle": null,
            "last": "Richard",
            "initials": "R, R."
        }
    ],
    "editors": [
        {
            "first": null,
            "middle": null,
            "last": null,
            "initials": null
        }
    ],
    "type": "website",
    "title": "The Great Recession of 2007 – A detailed essay on an important event in the history of the Federal Reserve",
    "publication_date": {
        "year": 2013,
        "month": "November",
        "day": 22
    },
    "edited_year": null,
    "edition": null,
    "publisher": null,
    "city": null,
    "version": null,
    "number": null,
    "volume": null,
    "container_title": null,
    "works_title": null,
    "website_title": null,
    "url": null,
    "doi": null,
    "date_accessed": {
        "year": 2015,
        "month": "June",
        "day": 30
    },
    "journal_title": null,
    "pages": [
    ],
    "issue_number": null,
    "medium_type": "website",
    "available_at": "http://www.federalreservehistory.org/Events/DetailView/58",
    "collection_title": null,
    "first_edition_date": null
}